{
    "status": "success",
    "data": [
        {
            "id": 1,
            "activity_name": "\u81fa\u5357\u65c5\u904a\u300e\u73a9\u300f\u5de5\u300e\u85dd\u300f",
            "location": "\u7bc9\u597d\u73a9\u85dd",
            "start_date": "2025-02-23T09:00:00",
            "end_date": "2025-02-23T17:30:00",
            "ticket_price": "NT\uff04400\uff5eNT\uff042000"
        },
        {
            "id": 2,
            "activity_name": "\u3010\u592a\u6975\u82d1\u3011\u6bcf\u9031\u4e09\u665a\u4e0a\uff0c\u5927\u5b89\u68ee\u6797\u516c\u5712\u4e8c\u865f\u51fa\u53e3\uff0c\u90fd\u6709\u592a\u6975\u62f3\u5718\u7df4\u6d3b\u52d5\uff01",
            "location": "\u5927\u5b89\u68ee\u6797\u516c\u5712\u4e8c\u865f\u51fa\u53e3",
            "start_date": "2019-07-03T20:00:00",
            "end_date": "2025-07-09T18:00:00",
            "ticket_price": "\u514d\u8cbb"
        },
        {
            "id": 3,
            "activity_name": "\u50b3\u85dd\u690d\u7269\u5712",
            "location": "\u570b\u7acb\u50b3\u7d71\u85dd\u8853\u4e2d\u5fc3\u5b9c\u862d\u5712\u5340",
            "start_date": "2025-01-01T09:00:00",
            "end_date": "2025-02-28T18:00:00",
            "ticket_price": "\u9580\u7968--\u656c\u8001\u7968+75;\u9580\u7968--\u7e23\u6c11\u7968+100;\u9580\u7968--\u512a\u5f85\u7968+120;\u9580\u7968--\u666e\u901a\u7968+150"
        },
        {
            "id": 4,
            "activity_name": "\ud835\udde7\ud835\uddd4\ud835\uddd9\ud835\uddd4\ud835\udddf\ud835\udde2\ud835\udde1\ud835\uddda\u592a\u5df4\u5871\u8d77\u6e90\u2aa4\u7e8c\u5b58\u2aa4\u793e\u6703",
            "location": "\u5149\u5fa9\u9109\uff08\u82b1\u84ee\u7e23\uff09=",
            "start_date": "2025-01-01T09:00:00",
            "end_date": "2025-08-18T17:00:00",
            "ticket_price": "\u7121\u8cc7\u6599"
        },
        {
            "id": 5,
            "activity_name": "\u4e9e\u592a\u6a02\u5668\u5e38\u8a2d\u5c55",
            "location": "\u570b\u7acb\u50b3\u7d71\u85dd\u8853\u4e2d\u5fc3\u5b9c\u862d\u5712\u5340",
            "start_date": "2025-01-01T09:00:00",
            "end_date": "2025-12-31T17:00:00",
            "ticket_price": "\u9580\u7968--\u656c\u8001\u7968+75;\u9580\u7968--\u7e23\u6c11\u7968+100;\u9580\u7968--\u512a\u5f85\u7968+120;\u9580\u7968--\u666e\u901a\u7968+150"
        },
        {
            "id": 6,
            "activity_name": "\u3010\u81fa\u7063\u6587\u5b78\u57fa\u5730\u3011\u7e6a\u672c\u597d\u6642\u5149\uff08\u81fa\u5317\uff09",
            "location": "\u81fa\u7063\u6587\u5b78\u57fa\u5730\u6587\u5b78\u539d",
            "start_date": "2025-02-26T14:30:00",
            "end_date": "2025-02-26T14:30:00",
            "ticket_price": "\u7121\u8cc7\u6599"
        },
        {
            "id": 7,
            "activity_name": "\u3010\u597d\u6232\u5728\u81fa\u3011\u5e03\u888b\u6232\u5f69\u6a13\u6578\u4f4d\u591a\u5a92\u9ad4\u5c55",
            "location": "\u570b\u7acb\u50b3\u7d71\u85dd\u8853\u4e2d\u5fc3\u5b9c\u862d\u5712\u5340",
            "start_date": "2025-01-01T09:00:00",
            "end_date": "2025-09-17T18:00:00",
            "ticket_price": "\u9580\u7968--\u656c\u8001\u7968+75;\u9580\u7968--\u7e23\u6c11\u7968+100;\u9580\u7968--\u512a\u5f85\u7968+120;\u9580\u7968--\u666e\u901a\u7968+150"
        },
        {
            "id": 8,
            "activity_name": "\u300c\u5c0b\uff08qim\u02c7\uff09\u886b\uff08sam\u02ca\uff09\uff1a\u516d\u5806\u539f\u5ba2\u670d\u98fe\u5716\u7d0b\u4e2a\u5c0d\u8a71\u300d\u7279\u5c55 ",
            "location": "\u516d\u5806\u5ba2\u5bb6\u6587\u5316\u5712\u5340",
            "start_date": "2025-01-01T09:00:00",
            "end_date": "2025-02-28T17:00:00",
            "ticket_price": "\u7121\u8cc7\u6599"
        },
        {
            "id": 9,
            "activity_name": "\u3010\u5730\u7403you & me\u3011\u6050\u9f8d\u77f3\u5149\u8de1",
            "location": "\u81fa\u535a\u9928\u53e4\u751f\u7269\u9928 \u9be8\u8c5a\u5e73\u53f0",
            "start_date": "2025-03-08T14:00:00",
            "end_date": "2025-03-08T14:00:00",
            "ticket_price": "\u6d3b\u52d5\u514d\u8cbb\uff0c\u9808\u6191\u7576\u65e5\u53e4\u751f\u7269\u9928\u6216\u672c\u9928\u9580\u7968\u53c3\u52a0"
        },
        {
            "id": 10,
            "activity_name": "2025\u570b\u969b\u6c88\u6587\u7a0b\u65e5 \u4e94\u6708\u5341\u4e00\u5f7c\u4e0b\u57d4\u5de1\u8ff4\u6f14\u5531\u6703 ",
            "location": "\u53f0\u5317\u570b\u969b\u6703\u8b70\u4e2d\u5fc3\u5927\u6703\u5802",
            "start_date": "2025-05-10T14:30:00",
            "end_date": "2025-05-10T23:00:00",
            "ticket_price": "3600\u30013200\u30012800\u30012400\u30012000\u30011600\u30011200"
        }
    ],
    "total": 4659,
    "page": 1,
    "total_pages": 466
}
